readxl v1.0.0 • readxl
…
Is more resilient to the wondrous diversity in spreadsheets, e.g., those written by 3rd party tools

You can see a full list of changes in the release notes. This is the first release maintained by Jenny Bryan.

Specifying the data rectangle

In an ideal world, data would live in a neat rectangle in the upper left corner of a spreadsheet. But spreadsheets often serve multiple purposes for users with different priorities. It is common to encounter several rows of notes above or below the data, for example. The new range argument provides a flexible interface for describing the data rectangle, including Excel-style ranges and row- or column-only ranges.

library(readxl)
read_excel(
  readxl_example("deaths.xlsx"),
  range = "arts!A5:F15"
)
#> # A tibble: 10 × 6
#>            Name Profession   Age `Has kids` `Date of birth`
#>           <chr>      <chr> <dbl>      <lgl>          <dttm>
#> 1   David Bowie   musician    69       TRUE      1947-01-08
#> 2 Carrie Fisher      actor    60       TRUE      1956-10-21
#> 3   Chuck Berry   musician    90       TRUE      1926-10-18
#> 4   Bill Paxton      actor    61       TRUE      1955-05-17
#> # ... with 6 more rows, and 1 more variables: `Date of death` <dttm>
read_excel(
  readxl_example("deaths.xlsx"),
  sheet = "other",
  range = cell_rows(5:15)
)
#> # A tibble: 10 × 6
#>           Name Profession   Age `Has kids` `Date of birth` `Date of death`
#>          <chr>      <chr> <dbl>      <lgl>          <dttm>          <dttm>
#> 1   Vera Rubin  scientist    88       TRUE      1928-07-23      2016-12-25
#> 2  Mohamed Ali    athlete    74       TRUE      1942-01-17      2016-06-03
#> 3 Morley Safer journalist    84       TRUE      1931-11-08      2016-05-19
#> 4 Fidel Castro politician    90       TRUE      1926-08-13      2016-11-25
#> # ... with 6 more rows

There is also a new argument n_max that limits the number of data rows read from the sheet. It is an example of readxl’s evolution towards a readr-like interface. The Sheet Geometry vignette goes over all the options.

Column typing

The new ability to target cells for reading means that readxl’s automatic column typing will “just work”" for most sheets, most of the time. Above, the Has kids column is automatically detected as logical, which is a new column type for readxl.

You can still specify column type explicitly via col_types, which gets a couple new features. If you provide exactly one type, it is recycled to the necessary length. The new type "guess" can be mixed with explicit types to specify some types, while leaving others to be guessed.

read_excel(
  readxl_example("deaths.xlsx"),
  range = "arts!A5:C15",
  col_types = c("guess", "skip", "numeric")
)
#> # A tibble: 10 × 2
#>            Name   Age
#>           <chr> <dbl>
#> 1   David Bowie    69
#> 2 Carrie Fisher    60
#> 3   Chuck Berry    90
#> 4   Bill Paxton    61
#> # ... with 6 more rows
…
