Read Excel Files • readxl
…
readxl includes several example files, which we use throughout the documentation. Use the helper readxl_example() with no arguments to list them or call it with an example filename to get the path.

readxl_example()
#>  [1] "clippy.xls"    "clippy.xlsx"   "datasets.xls"  "datasets.xlsx"
#>  [5] "deaths.xls"    "deaths.xlsx"   "geometry.xls"  "geometry.xlsx"
#>  [9] "type-me.xls"   "type-me.xlsx"
readxl_example("clippy.xls")
#> [1] "/private/var/folders/qy/_87n3lkx6dd_3rkvbw6yqjg00000gn/T/RtmpHrzR24/temp_libpath243a2ea1b55/readxl/extdata/clippy.xls"

read_excel() reads both xls and xlsx files and detects the format from the extension.

xlsx_example <- readxl_example("datasets.xlsx")
read_excel(xlsx_example)
#> # A tibble: 150 x 5
#>   Sepal.Length Sepal.Width Petal.Length Petal.Width Species
#>          <dbl>       <dbl>        <dbl>       <dbl> <chr>  
#> 1          5.1         3.5          1.4         0.2 setosa 
#> 2          4.9         3            1.4         0.2 setosa 
#> 3          4.7         3.2          1.3         0.2 setosa 
#> # … with 147 more rows

xls_example <- readxl_example("datasets.xls")
read_excel(xls_example)
#> # A tibble: 150 x 5
#>   Sepal.Length Sepal.Width Petal.Length Petal.Width Species
#>          <dbl>       <dbl>        <dbl>       <dbl> <chr>  
#> 1          5.1         3.5          1.4         0.2 setosa 
#> 2          4.9         3            1.4         0.2 setosa 
#> 3          4.7         3.2          1.3         0.2 setosa 
#> # … with 147 more rows

List the sheet names with excel_sheets().

excel_sheets(xlsx_example)
#> [1] "iris"     "mtcars"   "chickwts" "quakes"

Specify a worksheet by name or number.

read_excel(xlsx_example, sheet = "chickwts")
#> # A tibble: 71 x 2
#>   weight feed     
#>    <dbl> <chr>    
#> 1    179 horsebean
#> 2    160 horsebean
#> 3    136 horsebean
#> # … with 68 more rows
read_excel(xls_example, sheet = 4)
#> # A tibble: 1,000 x 5
#>     lat  long depth   mag stations
#>   <dbl> <dbl> <dbl> <dbl>    <dbl>
#> 1 -20.4  182.   562   4.8       41
#> 2 -20.6  181.   650   4.2       15
#> 3 -26    184.    42   5.4       43
#> # … with 997 more rows
…
#> # A tibble: 3 x 3
#>   Petal.Length Petal.Width Species
#>          <dbl>       <dbl> <chr>  
#> 1          1.4         0.2 setosa 
#> 2          1.4         0.2 setosa 
#> 3          1.3         0.2 setosa
read_excel(xlsx_example, range = cell_rows(1:4))
#> # A tibble: 3 x 5
#>   Sepal.Length Sepal.Width Petal.Length Petal.Width Species
#>          <dbl>       <dbl>        <dbl>       <dbl> <chr>  
#> 1          5.1         3.5          1.4         0.2 setosa 
#> 2          4.9         3            1.4         0.2 setosa 
#> 3          4.7         3.2          1.3         0.2 setosa
read_excel(xlsx_example, range = cell_cols("B:D"))
#> # A tibble: 150 x 3
#>   Sepal.Width Petal.Length Petal.Width
#>         <dbl>        <dbl>       <dbl>
#> 1         3.5          1.4         0.2
#> 2         3            1.4         0.2
#> 3         3.2          1.3         0.2
#> # … with 147 more rows
read_excel(xlsx_example, range = "mtcars!B1:D5")
#> # A tibble: 4 x 3
#>     cyl  disp    hp
#>   <dbl> <dbl> <dbl>
#> 1     6   160   110
#> 2     6   160   110
#> 3     4   108    93
#> # … with 1 more row

If NAs are represented by something other than blank cells, set the na argument.

read_excel(xlsx_example, na = "setosa")
#> # A tibble: 150 x 5
#>   Sepal.Length Sepal.Width Petal.Length Petal.Width Species
#>          <dbl>       <dbl>        <dbl>       <dbl> <chr>  
#> 1          5.1         3.5          1.4         0.2 <NA>   
#> 2          4.9         3            1.4         0.2 <NA>   
#> 3          4.7         3.2          1.3         0.2 <NA>   
#> # … with 147 more rows
…
