…
readxl includes example files `datasets.xlsx` and `datasets.xls`, containing datasets you already know and love. These files were created with the help of openxlsx and Excel. Paths to all example files are available via the helper `readxl_example()`.

``` r
l <- list("iris" = iris, "mtcars" = mtcars, chickwts = chickwts, quakes = quakes)
openxlsx::write.xlsx(l, file = "inst/extdata/datasets.xlsx")
```

`read_excel()` reads both xls and xlsx files and detects the format from the extension.

``` r
library(readxl)

xlsx_example <- readxl_example("datasets.xlsx")
read_excel(xlsx_example)
#> # A tibble: 150 × 5
#>   Sepal.Length Sepal.Width Petal.Length Petal.Width Species
#>          <dbl>       <dbl>        <dbl>       <dbl>   <chr>
#> 1          5.1         3.5          1.4         0.2  setosa
#> 2          4.9         3.0          1.4         0.2  setosa
#> 3          4.7         3.2          1.3         0.2  setosa
#> # ... with 147 more rows

xls_example <- readxl_example("datasets.xls")
read_excel(xls_example)
#> # A tibble: 150 × 5
#>   Sepal.Length Sepal.Width Petal.Length Petal.Width Species
#>          <dbl>       <dbl>        <dbl>       <dbl>   <chr>
#> 1          5.1         3.5          1.4         0.2  setosa
#> 2          4.9         3.0          1.4         0.2  setosa
#> 3          4.7         3.2          1.3         0.2  setosa
#> # ... with 147 more rows
```

List the sheet names with `excel_sheets()`.

``` r
excel_sheets(xlsx_example)
#> [1] "iris"     "mtcars"   "chickwts" "quakes"
```

Specify a worksheet by name or number.

``` r
read_excel(xlsx_example, sheet = "chickwts")
#> # A tibble: 71 × 2
#>   weight      feed
#>    <dbl>     <chr>
#> 1    179 horsebean
#> 2    160 horsebean
#> 3    136 horsebean
#> # ... with 68 more rows
read_excel(xls_example, sheet = 4)
#> # A tibble: 1,000 × 5
#>      lat   long depth   mag stations
#>    <dbl>  <dbl> <dbl> <dbl>    <dbl>
#> 1 -20.42 181.62   562   4.8       41
#> 2 -20.62 181.03   650   4.2       15
#> 3 -26.00 184.10    42   5.4       43
#> # ... with 997 more rows
```

If `NA`s are represented by something other than blank cells, set the `na` argument.

``` r
read_excel(xlsx_example, na = "setosa")
#> # A tibble: 150 × 5
#>   Sepal.Length Sepal.Width Petal.Length Petal.Width Species
#>          <dbl>       <dbl>        <dbl>       <dbl>   <chr>
#> 1          5.1         3.5          1.4         0.2    <NA>
#> 2          4.9         3.0          1.4         0.2    <NA>
#> 3          4.7         3.2          1.3         0.2    <NA>
#> # ... with 147 more rows
```
…
