Read Excel Files • readxl
…
readxl includes several example files, which we use throughout the documentation. Use the helper readxl_example() with no arguments to list them or call it with an example filename to get the path.

readxl_example()
#>  [1] "clippy.xls"    "clippy.xlsx"   "datasets.xls"  "datasets.xlsx"
#>  [5] "deaths.xls"    "deaths.xlsx"   "geometry.xls"  "geometry.xlsx"
#>  [9] "type-me.xls"   "type-me.xlsx"
readxl_example("clippy.xls")
#> [1] "/private/tmp/Rtmpzymw54/temp_libpath117f779f0191c/readxl/extdata/clippy.xls"

read_excel() reads both xls and xlsx files and detects the format from the extension.

xlsx_example <- readxl_example("datasets.xlsx")
read_excel(xlsx_example)
#> # A tibble: 32 × 11
#>     mpg   cyl  disp    hp  drat    wt  qsec    vs    am  gear  carb
#>   <dbl> <dbl> <dbl> <dbl> <dbl> <dbl> <dbl> <dbl> <dbl> <dbl> <dbl>
#> 1  21       6   160   110  3.9   2.62  16.5     0     1     4     4
#> 2  21       6   160   110  3.9   2.88  17.0     0     1     4     4
#> 3  22.8     4   108    93  3.85  2.32  18.6     1     1     4     1
#> # ℹ 29 more rows

xls_example <- readxl_example("datasets.xls")
read_excel(xls_example)
#> # A tibble: 32 × 11
#>     mpg   cyl  disp    hp  drat    wt  qsec    vs    am  gear  carb
#>   <dbl> <dbl> <dbl> <dbl> <dbl> <dbl> <dbl> <dbl> <dbl> <dbl> <dbl>
#> 1  21       6   160   110  3.9   2.62  16.5     0     1     4     4
#> 2  21       6   160   110  3.9   2.88  17.0     0     1     4     4
#> 3  22.8     4   108    93  3.85  2.32  18.6     1     1     4     1
#> # ℹ 29 more rows

List the sheet names with excel_sheets().

excel_sheets(xlsx_example)
#> [1] "mtcars"   "chickwts" "quakes"

Specify a worksheet by name or number.

read_excel(xlsx_example, sheet = "chickwts")
#> # A tibble: 71 × 2
#>   weight feed     
#>    <dbl> <chr>    
#> 1    179 horsebean
#> 2    160 horsebean
#> 3    136 horsebean
#> # ℹ 68 more rows
read_excel(xls_example, sheet = 3)
#> # A tibble: 1,000 × 5
#>     lat  long depth   mag stations
#>   <dbl> <dbl> <dbl> <dbl>    <dbl>
#> 1 -20.4  182.   562   4.8       41
#> 2 -20.6  181.   650   4.2       15
#> 3 -26    184.    42   5.4       43
#> # ℹ 997 more rows
…
#> # A tibble: 3 × 3
#>    disp    hp  drat
#>   <dbl> <dbl> <dbl>
#> 1   160   110  3.9 
#> 2   160   110  3.9 
#> 3   108    93  3.85
read_excel(xlsx_example, range = cell_rows(1:4))
#> # A tibble: 3 × 11
#>     mpg   cyl  disp    hp  drat    wt  qsec    vs    am  gear  carb
#>   <dbl> <dbl> <dbl> <dbl> <dbl> <dbl> <dbl> <dbl> <dbl> <dbl> <dbl>
#> 1  21       6   160   110  3.9   2.62  16.5     0     1     4     4
#> 2  21       6   160   110  3.9   2.88  17.0     0     1     4     4
#> 3  22.8     4   108    93  3.85  2.32  18.6     1     1     4     1
read_excel(xlsx_example, range = cell_cols("B:D"))
#> # A tibble: 32 × 3
#>     cyl  disp    hp
#>   <dbl> <dbl> <dbl>
#> 1     6   160   110
#> 2     6   160   110
#> 3     4   108    93
#> # ℹ 29 more rows
read_excel(xlsx_example, range = "mtcars!B1:D5")
#> # A tibble: 4 × 3
#>     cyl  disp    hp
#>   <dbl> <dbl> <dbl>
#> 1     6   160   110
#> 2     6   160   110
#> 3     4   108    93
#> # ℹ 1 more row

If NAs are represented by something other than blank cells, set the na argument.

read_excel(xlsx_example, na = "0")
#> # A tibble: 32 × 11
#>     mpg   cyl  disp    hp  drat    wt  qsec    vs    am  gear  carb
#>   <dbl> <dbl> <dbl> <dbl> <dbl> <dbl> <dbl> <dbl> <dbl> <dbl> <dbl>
#> 1  21       6   160   110  3.9   2.62  16.5    NA     1     4     4
#> 2  21       6   160   110  3.9   2.88  17.0    NA     1     4     4
#> 3  22.8     4   108    93  3.85  2.32  18.6     1     1     4     1
#> # ℹ 29 more rows
…
