…
Here’s an example of column guessing with `deaths.xlsx` which ships with
readxl.

``` r

read_excel(readxl_example("deaths.xlsx"), range = cell_rows(5:15))
#> # A tibble: 10 × 6
#>   Name          Profession   Age `Has kids` `Date of birth`    
#>   <chr>         <chr>      <dbl> <lgl>      <dttm>             
#> 1 David Bowie   musician      69 TRUE       1947-01-08 00:00:00
#> 2 Carrie Fisher actor         60 TRUE       1956-10-21 00:00:00
#> 3 Chuck Berry   musician      90 TRUE       1926-10-18 00:00:00
#> 4 Bill Paxton   actor         61 TRUE       1955-05-17 00:00:00
#> # ℹ 6 more rows
#> # ℹ 1 more variable: `Date of death` <dttm>
```
…
Example of skipping and guessing:

``` r

read_excel(
  readxl_example("deaths.xlsx"),
  range = cell_rows(5:15),
  col_types = c("guess", "skip", "guess", "skip", "skip", "skip")
)
#> # A tibble: 10 × 2
#>   Name            Age
#>   <chr>         <dbl>
#> 1 David Bowie      69
#> 2 Carrie Fisher    60
#> 3 Chuck Berry      90
#> 4 Bill Paxton      61
#> # ℹ 6 more rows
```
…
``` r

(nms <- names(read_excel(readxl_example("datasets.xlsx"), n_max = 0)))
#>  [1] "mpg"  "cyl"  "disp" "hp"   "drat" "wt"   "qsec" "vs"   "am"  
#> [10] "gear" "carb"
(ct <- ifelse(grepl("^Petal", nms), "text", "guess"))
#>  [1] "guess" "guess" "guess" "guess" "guess" "guess" "guess" "guess"
#>  [9] "guess" "guess" "guess"
read_excel(readxl_example("datasets.xlsx"), col_types = ct)
#> # A tibble: 32 × 11
#>     mpg   cyl  disp    hp  drat    wt  qsec    vs    am  gear  carb
#>   <dbl> <dbl> <dbl> <dbl> <dbl> <dbl> <dbl> <dbl> <dbl> <dbl> <dbl>
#> 1  21       6   160   110  3.9   2.62  16.5     0     1     4     4
#> 2  21       6   160   110  3.9   2.88  17.0     0     1     4     4
#> 3  22.8     4   108    93  3.85  2.32  18.6     1     1     4     1
#> 4  21.4     6   258   110  3.08  3.22  19.4     1     0     3     1
#> # ℹ 28 more rows
```
…
