Column Names • readxl
…
      Source: vignettes/articles/column-names.Rmd
      column-names.Rmd

library(readxl)

Column names via col_names

readxl has always let you specify col_names explicitly
at the time of import:

read_excel(
  readxl_example("datasets.xlsx"), sheet = "chickwts",
  col_names = c("chick_weight", "chick_ate_this"), skip = 1
)
#> # A tibble: 71 × 2
#>    chick_weight chick_ate_this
#>           <dbl> <chr>         
#>  1          179 horsebean     
#>  2          160 horsebean     
#>  3          136 horsebean     
#>  4          227 horsebean     
#>  5          217 horsebean     
#>  6          168 horsebean     
#>  7          108 horsebean     
#>  8          124 horsebean     
#>  9          143 horsebean     
#> 10          140 horsebean     
#> # ℹ 61 more rows
…
