readxl Workflows • readxl
…
iris_xl <- readxl_example("datasets.xlsx") %>% 
  read_excel(sheet = "iris") %>% 
  write_csv("iris-raw.csv")

Why does this work? readr::write_csv() is a
well-mannered “write” function: it does its main job and returns its
input invisibly. The above command reads the iris sheet from
readxl’s datasets.xlsx example workbook and caches a CSV
version of the resulting data frame to file.

Let’s check. Did we still import the data? Did we write the CSV
file?

iris_xl
#> # A tibble: 150 × 5
#>   Sepal.Length Sepal.Width Petal.Length Petal.Width Species
#>          <dbl>       <dbl>        <dbl>       <dbl> <chr>  
#> 1          5.1         3.5          1.4         0.2 setosa 
#> 2          4.9         3            1.4         0.2 setosa 
#> 3          4.7         3.2          1.3         0.2 setosa 
#> # ℹ 147 more rows
…
Here’s how to load all the sheets in a workbook into a list of data
frames:

Get worksheet names as a self-named character vector (these names
propagate nicely).

Use purrr::map() to iterate sheet reading.

path <- readxl_example("datasets.xlsx")
path %>% 
  excel_sheets() %>% 
  set_names() %>% 
  map(read_excel, path = path)
#> $iris
#> # A tibble: 150 × 5
#>   Sepal.Length Sepal.Width Petal.Length Petal.Width Species
#>          <dbl>       <dbl>        <dbl>       <dbl> <chr>  
#> 1          5.1         3.5          1.4         0.2 setosa 
#> 2          4.9         3            1.4         0.2 setosa 
#> 3          4.7         3.2          1.3         0.2 setosa 
#> # ℹ 147 more rows
#> 
#> $mtcars
#> # A tibble: 32 × 11
#>     mpg   cyl  disp    hp  drat    wt  qsec    vs    am  gear  carb
#>   <dbl> <dbl> <dbl> <dbl> <dbl> <dbl> <dbl> <dbl> <dbl> <dbl> <dbl>
#> 1  21       6   160   110  3.9   2.62  16.5     0     1     4     4
#> 2  21       6   160   110  3.9   2.88  17.0     0     1     4     4
#> 3  22.8     4   108    93  3.85  2.32  18.6     1     1     4     1
#> # ℹ 29 more rows
#> 
#> $chickwts
#> # A tibble: 71 × 2
#>   weight feed     
#>    <dbl> <chr>    
#> 1    179 horsebean
#> 2    160 horsebean
#> 3    136 horsebean
#> # ℹ 68 more rows
#> 
#> $quakes
#> # A tibble: 1,000 × 5
#>     lat  long depth   mag stations
#>   <dbl> <dbl> <dbl> <dbl>    <dbl>
#> 1 -20.4  182.   562   4.8       41
#> 2 -20.6  181.   650   4.2       15
#> 3 -26    184.    42   5.4       43
#> # ℹ 997 more rows
…
We could even define this on-the-fly as an anonymous function inside
map(), but I think this is more readable.

path <- readxl_example("datasets.xlsx")
path %>%
  excel_sheets() %>%
  set_names() %>% 
  map(read_then_csv, path = path)
#> $iris
#> # A tibble: 150 × 5
#>   Sepal.Length Sepal.Width Petal.Length Petal.Width Species
#>          <dbl>       <dbl>        <dbl>       <dbl> <chr>  
#> 1          5.1         3.5          1.4         0.2 setosa 
#> 2          4.9         3            1.4         0.2 setosa 
#> 3          4.7         3.2          1.3         0.2 setosa 
#> # ℹ 147 more rows
#> 
#> $mtcars
#> # A tibble: 32 × 11
#>     mpg   cyl  disp    hp  drat    wt  qsec    vs    am  gear  carb
#>   <dbl> <dbl> <dbl> <dbl> <dbl> <dbl> <dbl> <dbl> <dbl> <dbl> <dbl>
#> 1  21       6   160   110  3.9   2.62  16.5     0     1     4     4
#> 2  21       6   160   110  3.9   2.88  17.0     0     1     4     4
#> 3  22.8     4   108    93  3.85  2.32  18.6     1     1     4     1
#> # ℹ 29 more rows
#> 
#> $chickwts
#> # A tibble: 71 × 2
#>   weight feed     
#>    <dbl> <chr>    
#> 1    179 horsebean
#> 2    160 horsebean
#> 3    136 horsebean
#> # ℹ 68 more rows
#> 
#> $quakes
#> # A tibble: 1,000 × 5
#>     lat  long depth   mag stations
#>   <dbl> <dbl> <dbl> <dbl>    <dbl>
#> 1 -20.4  182.   562   4.8       41
#> 2 -20.6  181.   650   4.2       15
#> 3 -26    184.    42   5.4       43
#> # ℹ 997 more rows
…
