…
You can describe cell limits in a variety of ways:

**Excel-style range**: Specify a fixed rectangle with `range = "A1:D4"`
or `range = "R1C1:R4C4"`. You can even prepend the worksheet name like
so: `range = "foofy!A1:D4"` and it will be passed along to the `sheet`
argument.

The `deaths.xlsx` example sheet features junk rows both before and after
the data rectangle. The payoff for specifying the data rectangle
precisely is that we get the data frame we want, with correct guesses
for the column types.

``` r
read_excel(readxl_example("deaths.xlsx"), range = "arts!A5:F15")
#> # A tibble: 10 × 6
#>   Name          Profession   Age `Has kids` `Date of birth`    
#>   <chr>         <chr>      <dbl> <lgl>      <dttm>             
#> 1 David Bowie   musician      69 TRUE       1947-01-08 00:00:00
#> 2 Carrie Fisher actor         60 TRUE       1956-10-21 00:00:00
#> 3 Chuck Berry   musician      90 TRUE       1926-10-18 00:00:00
#> 4 Bill Paxton   actor         61 TRUE       1955-05-17 00:00:00
#> # ℹ 6 more rows
#> # ℹ 1 more variable: `Date of death` <dttm>
```
…
