readxl Workflows • readxl
…
Solution: cache a CSV snapshot of your raw data tables at the time of export. Even if you use read_excel() for end-to-end reproducibility, this complementary CSV leaves your analysis in a more accessible state.

Pipe the output of read_excel() directly into readr::write_csv() like so:

iris_xl <- readxl_example("datasets.xlsx") %>% 
  read_excel(sheet = "iris") %>% 
  write_csv("iris-raw.csv")

Why does this work? readr::write_csv() is a well-mannered “write” function: it does its main job and returns its input invisibly. The above command reads the iris sheet from readxl’s datasets.xlsx example workbook and caches a CSV version of the resulting data frame to file.

Let’s check. Did we still import the data? Did we write the CSV file?

iris_xl
#> # A tibble: 150 x 5
#>   Sepal.Length Sepal.Width Petal.Length Petal.Width Species
#>          <dbl>       <dbl>        <dbl>       <dbl> <chr>  
#> 1         5.10        3.50         1.40       0.200 setosa 
#> 2         4.90        3.00         1.40       0.200 setosa 
#> 3         4.70        3.20         1.30       0.200 setosa 
#> # ... with 147 more rows
…
Let’s accept that this happens and that it is not entirely crazy. How can you efficiently load all of that into R?

Here’s how to load all the sheets in a workbook into a list of data frames:

Get worksheet names as a self-named character vector (these names propagate nicely).

Use purrr::map() to iterate sheet reading.

path <- readxl_example("datasets.xlsx")
path %>% 
  excel_sheets() %>% 
  set_names() %>% 
  map(read_excel, path = path)
#> $iris
#> # A tibble: 150 x 5
#>   Sepal.Length Sepal.Width Petal.Length Petal.Width Species
#>          <dbl>       <dbl>        <dbl>       <dbl> <chr>  
#> 1         5.10        3.50         1.40       0.200 setosa 
#> 2         4.90        3.00         1.40       0.200 setosa 
#> 3         4.70        3.20         1.30       0.200 setosa 
#> # ... with 147 more rows
#> 
#> $mtcars
#> # A tibble: 32 x 11
#>     mpg   cyl  disp    hp  drat    wt  qsec    vs    am  gear  carb
#>   <dbl> <dbl> <dbl> <dbl> <dbl> <dbl> <dbl> <dbl> <dbl> <dbl> <dbl>
#> 1  21.0    6.  160.  110.  3.90  2.62  16.5    0.    1.    4.    4.
#> 2  21.0    6.  160.  110.  3.90  2.88  17.0    0.    1.    4.    4.
#> 3  22.8    4.  108.   93.  3.85  2.32  18.6    1.    1.    4.    1.
#> # ... with 29 more rows
#> 
#> $chickwts
#> # A tibble: 71 x 2
#>   weight feed     
#>    <dbl> <chr>    
#> 1   179. horsebean
#> 2   160. horsebean
#> 3   136. horsebean
#> # ... with 68 more rows
#> 
#> $quakes
#> # A tibble: 1,000 x 5
#>     lat  long depth   mag stations
#>   <dbl> <dbl> <dbl> <dbl>    <dbl>
#> 1 -20.4  182.  562.  4.80      41.
#> 2 -20.6  181.  650.  4.20      15.
#> 3 -26.0  184.   42.  5.40      43.
#> # ... with 997 more rows
…
We could even define this on-the-fly as an anonymous function inside map(), but I think this is more readable.

path <- readxl_example("datasets.xlsx")
path %>%
  excel_sheets() %>%
  set_names() %>% 
  map(read_then_csv, path = path)
#> $iris
#> # A tibble: 150 x 5
#>   Sepal.Length Sepal.Width Petal.Length Petal.Width Species
#>          <dbl>       <dbl>        <dbl>       <dbl> <chr>  
#> 1         5.10        3.50         1.40       0.200 setosa 
#> 2         4.90        3.00         1.40       0.200 setosa 
#> 3         4.70        3.20         1.30       0.200 setosa 
#> # ... with 147 more rows
#> 
#> $mtcars
#> # A tibble: 32 x 11
#>     mpg   cyl  disp    hp  drat    wt  qsec    vs    am  gear  carb
#>   <dbl> <dbl> <dbl> <dbl> <dbl> <dbl> <dbl> <dbl> <dbl> <dbl> <dbl>
#> 1  21.0    6.  160.  110.  3.90  2.62  16.5    0.    1.    4.    4.
#> 2  21.0    6.  160.  110.  3.90  2.88  17.0    0.    1.    4.    4.
#> 3  22.8    4.  108.   93.  3.85  2.32  18.6    1.    1.    4.    1.
#> # ... with 29 more rows
#> 
#> $chickwts
#> # A tibble: 71 x 2
#>   weight feed     
#>    <dbl> <chr>    
#> 1   179. horsebean
#> 2   160. horsebean
#> 3   136. horsebean
#> # ... with 68 more rows
#> 
#> $quakes
#> # A tibble: 1,000 x 5
#>     lat  long depth   mag stations
#>   <dbl> <dbl> <dbl> <dbl>    <dbl>
#> 1 -20.4  182.  562.  4.80      41.
#> 2 -20.6  181.  650.  4.20      15.
#> 3 -26.0  184.   42.  5.40      43.
#> # ... with 997 more rows
…
