Cell and Column Types • readxl
…
readr guesses column type based on the data.

readxl guesses column type based on Excel cell types.

Each cell in an Excel spreadsheet has its own type. For all intents and purposes, they are:

       empty < boolean < numeric < text

with the wrinkle that datetimes are a very special flavor of numeric. A cell of any particular type can always be represented as one of any higher type and, possibly, as one of lower type. When guessing, read_excel() keeps a running “maximum” on the cell types it has seen in any given column. Once it has visited guess_max rows or run out of data, this is the guessed type for that column. There is a strong current towards “text”, the column type of last resort.

Here’s an example of column guessing with deaths.xlsx which ships with readxl.

read_excel(readxl_example("deaths.xlsx"), range = cell_rows(5:15))
#> # A tibble: 10 × 5
#>            Name Profession   Age `Date of birth` `Date of death`
#>           <chr>      <chr> <dbl>          <dttm>          <dttm>
#> 1   David Bowie   musician    69      1947-01-08      2016-01-10
#> 2 Carrie Fisher      actor    60      1956-10-21      2016-12-27
#> 3   Chuck Berry   musician    90      1926-10-18      2017-03-18
#> 4   Bill Paxton      actor    61      1955-05-17      2017-02-25
#> # ... with 6 more rows
…
Some explanation about the weird cases in the first two rows:

If a column falls in your data rectangle, but you do not want an associated variable in the output, specify the column type "skip". Internally, these cells may be visited in order to learn their location, but they are not loaded and their data is never read.

You cannot request that a column be included but filled with NAs. Such a column can arise naturally, if all the cells are empty, or you can skip a column (see previous point).

Example of skipping and guessing:

read_excel(
  readxl_example("deaths.xlsx"),
  range = cell_rows(5:15),
  col_types = c("guess", "skip", "guess", "skip", "skip")
)
#> # A tibble: 10 × 2
#>            Name   Age
#>           <chr> <dbl>
#> 1   David Bowie    69
#> 2 Carrie Fisher    60
#> 3   Chuck Berry    90
#> 4   Bill Paxton    61
#> # ... with 6 more rows
…
