Read xls and xlsx files. — read_excel • readxl
…
    Examples

datasets <- readxl_example("datasets.xlsx")
read_excel(datasets)
#> # A tibble: 150 × 5
#>   Sepal.Length Sepal.Width Petal.Length Petal.Width Species
#>          <dbl>       <dbl>        <dbl>       <dbl>   <chr>
#> 1          5.1         3.5          1.4         0.2  setosa
#> 2          4.9         3.0          1.4         0.2  setosa
#> 3          4.7         3.2          1.3         0.2  setosa
#> # ... with 147 more rows

# Specific sheet either by position or by name
read_excel(datasets, 2)
#> # A tibble: 32 × 11
#>     mpg   cyl  disp    hp  drat    wt  qsec    vs    am  gear  carb
#>   <dbl> <dbl> <dbl> <dbl> <dbl> <dbl> <dbl> <dbl> <dbl> <dbl> <dbl>
#> 1  21.0     6   160   110  3.90 2.620 16.46     0     1     4     4
#> 2  21.0     6   160   110  3.90 2.875 17.02     0     1     4     4
#> 3  22.8     4   108    93  3.85 2.320 18.61     1     1     4     1
#> # ... with 29 more rows
read_excel(datasets, "mtcars")
#> # A tibble: 32 × 11
#>     mpg   cyl  disp    hp  drat    wt  qsec    vs    am  gear  carb
#>   <dbl> <dbl> <dbl> <dbl> <dbl> <dbl> <dbl> <dbl> <dbl> <dbl> <dbl>
#> 1  21.0     6   160   110  3.90 2.620 16.46     0     1     4     4
#> 2  21.0     6   160   110  3.90 2.875 17.02     0     1     4     4
#> 3  22.8     4   108    93  3.85 2.320 18.61     1     1     4     1
#> # ... with 29 more rows

# Skipping rows and using default column names
read_excel(datasets, skip = 148, col_names = FALSE)
#> # A tibble: 3 × 5
#>    X__1  X__2  X__3  X__4      X__5
#>   <dbl> <dbl> <dbl> <dbl>     <chr>
#> 1   6.5   3.0   5.2   2.0 virginica
#> 2   6.2   3.4   5.4   2.3 virginica
#> 3   5.9   3.0   5.1   1.8 virginica

# "list" col_type can handle information of disparate types
df <- read_excel(readxl_example("clippy.xlsx"), col_types = c("text", "list"))
df
#> # A tibble: 4 × 2
#>                   name      value
#>                  <chr>     <list>
#> 1                 Name  <chr [1]>
#> 2              Species  <chr [1]>
#> 3 Approx date of death <dttm [1]>
#> # ... with 1 more rows
…
