Cell and Column Types • readxl
…
readr guesses column type based on the data.

readxl guesses column type based on Excel cell types.

Each cell in an Excel spreadsheet has its own type. For all intents and purposes, they are:

       empty < boolean < numeric < text

with the wrinkle that datetimes are a very special flavor of numeric. A cell of any particular type can always be represented as one of any higher type and, possibly, as one of lower type. When guessing, read_excel() keeps a running “maximum” on the cell types it has seen in any given column. Once it has visited guess_max rows or run out of data, this is the guessed type for that column. There is a strong current towards “text”, the column type of last resort.

Here’s an example of column guessing with deaths.xlsx which ships with readxl.

read_excel(readxl_example("deaths.xlsx"), range = cell_rows(5:15))
#> # A tibble: 10 x 6
#>   Name       Profession   Age `Has kids` `Date of birth`     `Date of death`    
#>   <chr>      <chr>      <dbl> <lgl>      <dttm>              <dttm>             
#> 1 David Bow… musician      69 TRUE       1947-01-08 00:00:00 2016-01-10 00:00:00
#> 2 Carrie Fi… actor         60 TRUE       1956-10-21 00:00:00 2016-12-27 00:00:00
#> 3 Chuck Ber… musician      90 TRUE       1926-10-18 00:00:00 2017-03-18 00:00:00
#> 4 Bill Paxt… actor         61 TRUE       1955-05-17 00:00:00 2017-02-25 00:00:00
#> # … with 6 more rows
…
Some explanation about the weird cases in the first two rows:

If a column falls in your data rectangle, but you do not want an associated variable in the output, specify the column type "skip". Internally, these cells may be visited in order to learn their location, but they are not loaded and their data is never read.

You cannot request that a column be included but filled with NAs. Such a column can arise naturally, if all the cells are empty, or you can skip a column (see previous point).

Example of skipping and guessing:

read_excel(
  readxl_example("deaths.xlsx"),
  range = cell_rows(5:15),
  col_types = c("guess", "skip", "guess", "skip", "skip", "skip")
)
#> # A tibble: 10 x 2
#>   Name            Age
#>   <chr>         <dbl>
#> 1 David Bowie      69
#> 2 Carrie Fisher    60
#> 3 Chuck Berry      90
#> 4 Bill Paxton      61
#> # … with 6 more rows
…
If your column typing problem can’t be solved by specifying na or the data rectangle, request the "list" column type and handle missing data and coercion after import.

Peek at column names

Sometimes you aren’t completely sure of column count or order, and yet you need to provide some information via col_types. For example, you might know that the column named “foofy” should be text, but you’re not sure where it appears. Or maybe you want to ensure that lots of empty cells at the top of “foofy” don’t cause it to be guessed as logical.

Here’s an efficient trick to get the column names, so you can programmatically build the col_types vector you need for your main reading of the Excel file. Let’s imagine I want to force the columns whose names include “Petal” to be text, but leave everything else to be guessed.

(nms <- names(read_excel(readxl_example("datasets.xlsx"), n_max = 0)))
#> [1] "Sepal.Length" "Sepal.Width"  "Petal.Length" "Petal.Width"  "Species"
(ct <- ifelse(grepl("^Petal", nms), "text", "guess"))
#> [1] "guess" "guess" "text"  "text"  "guess"
read_excel(readxl_example("datasets.xlsx"), col_types = ct)
#> # A tibble: 150 x 5
#>   Sepal.Length Sepal.Width Petal.Length Petal.Width Species
#>          <dbl>       <dbl> <chr>        <chr>       <chr>  
#> 1          5.1         3.5 1.4          0.2         setosa 
#> 2          4.9         3   1.4          0.2         setosa 
#> 3          4.7         3.2 1.3          0.2         setosa 
#> 4          4.6         3.1 1.5          0.2         setosa 
#> # … with 146 more rows
…
